{
    "KPackageStructure": "KWin/Effect",
    "KPlugin": {
        "Authors": [
            {
                "Email": "l.lunak@kde.org, mgraesslin@kde.org",
                "Name": "Luboš Luňák, Martin Gräßlin",
                "Name[ar]": "لوبوس لوناك، مارتن جراجلين",
                "Name[bg]": "Luboš Luňák, Martin Gräßlin",
                "Name[ca@valencia]": "Luboš Luňák, Martin Gräßlin",
                "Name[ca]": "Luboš Luňák, Martin Gräßlin",
                "Name[es]": "Luboš Luňák, Martin Gräßlin",
                "Name[et]": "Luboš Luňák, Martin Gräßlin",
                "Name[eu]": "Luboš Luňák, Martin Gräßlin",
                "Name[fr]": "Luboš Luňák, Martin Gräßlin",
                "Name[it]": "Luboš Luňák, Martin Gräßlin",
                "Name[ka]": "Luboš Luňák, Martin Gräßlin",
                "Name[nl]": "Luboš Luňák, Martin Gräßlin",
                "Name[pt]": "Luboš Luňák, Martin Gräßlin",
                "Name[sl]": "Luboš Luňák, Martin Gräßlin",
                "Name[ta]": "லூபொசு லுனாக்கு, மார்ட்டின் கிராஸ்லின்",
                "Name[tr]": "Luboš Luňák, Martin Gräßlin",
                "Name[uk]": "Luboš Luňák, Martin Gräßlin",
                "Name[vi]": "Luboš Luňák, Martin Gräßlin",
                "Name[x-test]": "xxLuboš Luňák, Martin Gräßlinxx"
            }
        ],
        "Category": "Appearance",
        "Description": "Make windows translucent under different conditions",
        "Description[ar]": "يجعل النوافذ شبه شفافة في شروط مختلفة",
        "Description[bg]": "Прозрачност на прозорците при определени условия",
        "Description[ca@valencia]": "Torna translúcides les finestres en diverses condicions",
        "Description[ca]": "Torna translúcides les finestres en diverses condicions",
        "Description[es]": "Hacer que las ventanas sean transparentes bajo distintas condiciones",
        "Description[et]": "Akende muutmine läbipaistvaks teatavatel tingimustel",
        "Description[eu]": "Leihoak zeharrargitsu bihurtzen ditu baldintzen arabera",
        "Description[fr]": "Rendre les fenêtres translucides sous différentes conditions",
        "Description[it]": "Rende le finestre translucide in certe condizioni",
        "Description[nl]": "Maakt vensters doorschijnend onder andere condities",
        "Description[pt]": "Tornar as janelas translúcidas em diferentes condições",
        "Description[sl]": "Naredite okna prosojna pod različnimi pogoji",
        "Description[ta]": "சில சூழ்நிலைகளில் சாளரங்களின் ஒளிபுகுமையை கூட்டும்",
        "Description[tr]": "Değişik koşullar altında pencereleri yarısaydam yap",
        "Description[uk]": "Додавання прозорості до вікон за різних умов",
        "Description[vi]": "Làm cửa sổ trong mờ trong các điều kiện khác nhau",
        "Description[x-test]": "xxMake windows translucent under different conditionsxx",
        "Icon": "preferences-system-windows-effect-translucency",
        "Id": "kwin4_effect_translucency",
        "License": "GPL",
        "Name": "Translucency",
        "Name[ar]": "شبه الشفافية",
        "Name[bg]": "Прозрачност",
        "Name[ca@valencia]": "Translucidesa",
        "Name[ca]": "Translucidesa",
        "Name[es]": "Transparencia",
        "Name[et]": "Läbipaistvus",
        "Name[eu]": "Zeharrargitsua",
        "Name[fr]": "Translucidité",
        "Name[it]": "Translucenza",
        "Name[ka]": "გამჭვირვალობა",
        "Name[nl]": "Transparantie",
        "Name[pt]": "Translucidez",
        "Name[sl]": "Prosojnost",
        "Name[ta]": "ஒளிபுகுமை",
        "Name[tr]": "Yarısaydamlık",
        "Name[uk]": "Прозорість",
        "Name[vi]": "Độ trong mờ",
        "Name[x-test]": "xxTranslucencyxx",
        "Version": "0.1.0"
    },
    "X-KDE-Ordering": "50",
    "X-KDE-PluginKeyword": "kwin4_effect_translucency",
    "X-KWin-Config-TranslationDomain": "kwin_effects",
    "X-Plasma-API": "javascript",
    "X-Plasma-MainScript": "code/main.js"
}
