{
    "KPlugin": {
        "Category": "Appearance",
        "Description": "Allows you to draw lines on the desktop",
        "Description[ar]": "يسمح لك برسم خطوط على سطح المكتب",
        "Description[az]": "Siçan kursoru ilə ekranda şəkil çəkməyə imkan verir",
        "Description[bg]": "Позволява ви да чертаете линии на работния плот",
        "Description[ca@valencia]": "Permet dibuixar línies en l'escriptori",
        "Description[ca]": "Permet dibuixar línies a l'escriptori",
        "Description[cs]": "Umožní kreslit čáry na ploše",
        "Description[de]": "Lässt Sie mit der Maus Linien auf die Arbeitsfläche zeichnen",
        "Description[en_GB]": "Allows you to draw lines on the desktop",
        "Description[es]": "Le permite dibujar líneas en el escritorio",
        "Description[et]": "Võimaldab tõmmata töölauale jooni",
        "Description[eu]": "Mahaigainean marrak marrazteko aukera eskaintzen du",
        "Description[fi]": "Antaa piirtää työpöydälle viivoja",
        "Description[fr]": "Vous permet de dessiner des lignes sur le bureau",
        "Description[hu]": "Lehetővé teszi vonalak rajzolását az asztalon",
        "Description[ia]": "Permitte te designar lineas super le scriptorio",
        "Description[id]": "Memungkinkan kamu untuk mencoret-coret di desktop",
        "Description[it]": "Consente di tracciare linee sul desktop",
        "Description[ja]": "デスクトップに線を描きます",
        "Description[ko]": "바탕 화면에 선을 그립니다",
        "Description[nl]": "Laat u lijnen tekenen op het bureaublad",
        "Description[nn]": "La deg teikna linjer på skjermen",
        "Description[pl]": "Umożliwia rysowanie linii na pulpicie",
        "Description[pt]": "Permite-lhe desenhar linhas no ecrã",
        "Description[pt_BR]": "Permite-lhe desenhar linhas na sua área de trabalho",
        "Description[ro]": "Vă permite să desenați linii pe birou",
        "Description[ru]": "Рисование на экране курсором мыши",
        "Description[sk]": "Umožňuje myšou kresliť čiary na ploche",
        "Description[sl]": "Omogoča risanje črt na namizju",
        "Description[sv]": "Låter dig rita linjer på skrivbordet",
        "Description[ta]": "சுட்டியை கொண்டு திரையில் கோடுகள் வரைய விடும்",
        "Description[tr]": "Masaüstünde çizgiler çizmenize izin verir.",
        "Description[uk]": "Можливість малювання ліній на стільниці",
        "Description[vi]": "Cho phép bạn vẽ các nét trên bàn làm việc",
        "Description[x-test]": "xxAllows you to draw lines on the desktopxx",
        "Description[zh_CN]": "用鼠标光标直接在屏幕上画出线条",
        "Description[zh_TW]": "讓您能在桌面上畫線",
        "EnabledByDefault": false,
        "Id": "mousemark",
        "License": "GPL",
        "Name": "Mouse Mark",
        "Name[ar]": "علامة الفأرة",
        "Name[az]": "Siçanla rəsmçəkmə",
        "Name[bg]": "Маркиране с мишката",
        "Name[ca@valencia]": "Marca amb el ratolí",
        "Name[ca]": "Marca amb el ratolí",
        "Name[cs]": "Značkovač",
        "Name[de]": "Mausspur",
        "Name[en_GB]": "Mouse Mark",
        "Name[es]": "Marcar con el ratón",
        "Name[et]": "Hiirejälg",
        "Name[eu]": "Saguaren arrastoa",
        "Name[fi]": "Hiiren jäljet",
        "Name[fr]": "Tracé à la souris",
        "Name[hu]": "Egérnyom",
        "Name[ia]": "Marca de mus",
        "Name[id]": "Mouse Mark",
        "Name[it]": "Pennarello",
        "Name[ja]": "マウスマーク",
        "Name[ka]": "თაგუნას ნიშანი",
        "Name[ko]": "마우스 자취",
        "Name[nl]": "Muismarkering",
        "Name[nn]": "Muselinjer",
        "Name[pl]": "Znacznik myszy",
        "Name[pt]": "Marcação com o Rato",
        "Name[pt_BR]": "Anotar com o mouse",
        "Name[ro]": "Urme de maus",
        "Name[ru]": "Рисование мышью",
        "Name[sk]": "Stopa myši",
        "Name[sl]": "Oznaka miške",
        "Name[sv]": "Markera med musen",
        "Name[ta]": "சுட்டியை குறி",
        "Name[tr]": "Fare İmi",
        "Name[uk]": "Позначки мишкою",
        "Name[vi]": "Vết chuột",
        "Name[x-test]": "xxMouse Markxx",
        "Name[zh_CN]": "鼠标屏幕画线",
        "Name[zh_TW]": "滑鼠標記"
    },
    "X-KDE-ConfigModule": "kwin_mousemark_config"
}
